2021-02-05 09:29:45.180 +07:00 [INF] Starting web host
2021-02-05 09:35:09.164 +07:00 [INF] Starting web host
2021-02-05 09:37:44.221 +07:00 [INF] Starting web host
2021-02-05 11:40:30.435 +07:00 [INF] Starting web host
2021-02-05 11:41:54.661 +07:00 [INF] Starting web host
2021-02-05 11:43:10.065 +07:00 [INF] Starting web host
2021-02-05 11:59:07.985 +07:00 [INF] Starting web host
2021-02-05 12:02:53.369 +07:00 [INF] Starting web host
2021-02-05 13:08:28.835 +07:00 [INF] Starting web host
2021-02-05 13:11:15.752 +07:00 [INF] Starting web host
2021-02-05 13:14:00.749 +07:00 [INF] Update ProductGroup Success
2021-02-05 13:14:24.161 +07:00 [ERR] Error: ProductGroup not found
2021-02-05 13:32:17.783 +07:00 [INF] Starting web host
2021-02-05 13:32:53.494 +07:00 [INF] Starting web host
2021-02-05 13:33:19.077 +07:00 [INF] Starting web host
2021-02-05 15:02:34.486 +07:00 [INF] Starting web host
2021-02-05 15:04:44.486 +07:00 [INF] Starting web host
2021-02-05 15:22:03.095 +07:00 [INF] Starting web host
2021-02-05 15:32:09.903 +07:00 [INF] Starting web host
2021-02-05 15:32:22.855 +07:00 [INF] Starting web host
2021-02-05 15:33:32.471 +07:00 [INF] Starting web host
2021-02-05 15:34:37.699 +07:00 [ERR] An unhandled exception has occurred while executing the request.
AutoMapper.AutoMapperMappingException: Missing type map configuration or unsupported mapping.

Mapping types:
Object -> GetProductDto
System.Object -> SmileShopByKhunmiw.DTOs.Product.GetProductDto
   at lambda_method(Closure , Object , GetProductDto , ResolutionContext )
   at SmileShopByKhunmiw.Services.Product.ProductService.AddProduct(AddProductDto newProduct) in D:\Work\React\SmileShop\BackEnd\SmileShopByKhunmiw\SmileShopByKhunmiw\Services\Product\ProductService.cs:line 56
   at SmileShopByKhunmiw.Controllers.ProductController.AddProduct(AddProductDto newProduct) in D:\Work\React\SmileShop\BackEnd\SmileShopByKhunmiw\SmileShopByKhunmiw\Controllers\ProductController.cs:line 23
   at Microsoft.AspNetCore.Mvc.Infrastructure.ActionMethodExecutor.TaskOfIActionResultExecutor.Execute(IActionResultTypeMapper mapper, ObjectMethodExecutor executor, Object controller, Object[] arguments)
   at Microsoft.AspNetCore.Mvc.Infrastructure.ControllerActionInvoker.<InvokeActionMethodAsync>g__Awaited|12_0(ControllerActionInvoker invoker, ValueTask`1 actionResultValueTask)
   at Microsoft.AspNetCore.Mvc.Infrastructure.ControllerActionInvoker.<InvokeNextActionFilterAsync>g__Awaited|10_0(ControllerActionInvoker invoker, Task lastTask, State next, Scope scope, Object state, Boolean isCompleted)
   at Microsoft.AspNetCore.Mvc.Infrastructure.ControllerActionInvoker.Rethrow(ActionExecutedContextSealed context)
   at Microsoft.AspNetCore.Mvc.Infrastructure.ControllerActionInvoker.Next(State& next, Scope& scope, Object& state, Boolean& isCompleted)
   at Microsoft.AspNetCore.Mvc.Infrastructure.ControllerActionInvoker.<InvokeInnerFilterAsync>g__Awaited|13_0(ControllerActionInvoker invoker, Task lastTask, State next, Scope scope, Object state, Boolean isCompleted)
   at Microsoft.AspNetCore.Mvc.Infrastructure.ResourceInvoker.<InvokeFilterPipelineAsync>g__Awaited|19_0(ResourceInvoker invoker, Task lastTask, State next, Scope scope, Object state, Boolean isCompleted)
   at Microsoft.AspNetCore.Mvc.Infrastructure.ResourceInvoker.<InvokeAsync>g__Awaited|17_0(ResourceInvoker invoker, Task task, IDisposable scope)
   at Microsoft.AspNetCore.Routing.EndpointMiddleware.<Invoke>g__AwaitRequestTask|6_0(Endpoint endpoint, Task requestTask, ILogger logger)
   at Microsoft.AspNetCore.Authorization.AuthorizationMiddleware.Invoke(HttpContext context)
   at Microsoft.AspNetCore.Authentication.AuthenticationMiddleware.Invoke(HttpContext context)
   at Microsoft.AspNetCore.ResponseCaching.ResponseCachingMiddleware.Invoke(HttpContext httpContext)
   at Swashbuckle.AspNetCore.SwaggerUI.SwaggerUIMiddleware.Invoke(HttpContext httpContext)
   at Swashbuckle.AspNetCore.Swagger.SwaggerMiddleware.Invoke(HttpContext httpContext, ISwaggerProvider swaggerProvider)
   at Microsoft.AspNetCore.Diagnostics.DeveloperExceptionPageMiddleware.Invoke(HttpContext context)
2021-02-05 15:35:17.832 +07:00 [INF] Starting web host
2021-02-05 15:35:31.277 +07:00 [ERR] An unhandled exception has occurred while executing the request.
System.ArgumentNullException: Value cannot be null. (Parameter 'input')
   at System.Guid.Parse(String input)
   at SmileShopByKhunmiw.Services.Product.ProductService.AddProduct(AddProductDto newProduct) in D:\Work\React\SmileShop\BackEnd\SmileShopByKhunmiw\SmileShopByKhunmiw\Services\Product\ProductService.cs:line 50
   at SmileShopByKhunmiw.Controllers.ProductController.AddProduct(AddProductDto newProduct) in D:\Work\React\SmileShop\BackEnd\SmileShopByKhunmiw\SmileShopByKhunmiw\Controllers\ProductController.cs:line 23
   at Microsoft.AspNetCore.Mvc.Infrastructure.ActionMethodExecutor.TaskOfIActionResultExecutor.Execute(IActionResultTypeMapper mapper, ObjectMethodExecutor executor, Object controller, Object[] arguments)
   at Microsoft.AspNetCore.Mvc.Infrastructure.ControllerActionInvoker.<InvokeActionMethodAsync>g__Awaited|12_0(ControllerActionInvoker invoker, ValueTask`1 actionResultValueTask)
   at Microsoft.AspNetCore.Mvc.Infrastructure.ControllerActionInvoker.<InvokeNextActionFilterAsync>g__Awaited|10_0(ControllerActionInvoker invoker, Task lastTask, State next, Scope scope, Object state, Boolean isCompleted)
   at Microsoft.AspNetCore.Mvc.Infrastructure.ControllerActionInvoker.Rethrow(ActionExecutedContextSealed context)
   at Microsoft.AspNetCore.Mvc.Infrastructure.ControllerActionInvoker.Next(State& next, Scope& scope, Object& state, Boolean& isCompleted)
   at Microsoft.AspNetCore.Mvc.Infrastructure.ControllerActionInvoker.<InvokeInnerFilterAsync>g__Awaited|13_0(ControllerActionInvoker invoker, Task lastTask, State next, Scope scope, Object state, Boolean isCompleted)
   at Microsoft.AspNetCore.Mvc.Infrastructure.ResourceInvoker.<InvokeFilterPipelineAsync>g__Awaited|19_0(ResourceInvoker invoker, Task lastTask, State next, Scope scope, Object state, Boolean isCompleted)
   at Microsoft.AspNetCore.Mvc.Infrastructure.ResourceInvoker.<InvokeAsync>g__Awaited|17_0(ResourceInvoker invoker, Task task, IDisposable scope)
   at Microsoft.AspNetCore.Routing.EndpointMiddleware.<Invoke>g__AwaitRequestTask|6_0(Endpoint endpoint, Task requestTask, ILogger logger)
   at Microsoft.AspNetCore.Authorization.AuthorizationMiddleware.Invoke(HttpContext context)
   at Microsoft.AspNetCore.Authentication.AuthenticationMiddleware.Invoke(HttpContext context)
   at Microsoft.AspNetCore.ResponseCaching.ResponseCachingMiddleware.Invoke(HttpContext httpContext)
   at Swashbuckle.AspNetCore.SwaggerUI.SwaggerUIMiddleware.Invoke(HttpContext httpContext)
   at Swashbuckle.AspNetCore.Swagger.SwaggerMiddleware.Invoke(HttpContext httpContext, ISwaggerProvider swaggerProvider)
   at Microsoft.AspNetCore.Diagnostics.DeveloperExceptionPageMiddleware.Invoke(HttpContext context)
2021-02-05 15:37:07.587 +07:00 [INF] Starting web host
2021-02-05 16:42:36.318 +07:00 [INF] Starting web host
2021-02-05 16:42:53.040 +07:00 [INF] Starting web host
2021-02-05 16:51:19.633 +07:00 [INF] Starting web host
2021-02-05 16:51:41.885 +07:00 [INF] Starting web host
2021-02-05 17:09:37.406 +07:00 [INF] Starting web host
2021-02-05 21:52:18.000 +07:00 [INF] Starting web host
2021-02-05 22:00:19.325 +07:00 [INF] Starting web host
2021-02-05 22:01:48.038 +07:00 [INF] Starting web host
2021-02-05 22:04:58.033 +07:00 [INF] Starting web host
2021-02-05 22:05:36.444 +07:00 [INF] Starting web host
2021-02-05 22:06:40.769 +07:00 [INF] Starting web host
